<?xml version="1.0" encoding="utf-8"?>
<!-- Generator: Adobe Illustrator 24.3.0, SVG Export Plug-In . SVG Version: 6.00 Build 0)  -->
<svg version="1.1" id="Icon_Set" xmlns="http://www.w3.org/2000/svg" xmlns:xlink="http://www.w3.org/1999/xlink" x="0px" y="0px"
	 viewBox="0 0 196 196" style="enable-background:new 0 0 196 196;" xml:space="preserve">
<style type="text/css">
	.st0{fill:#2933C5;}
	.st1{fill:none;}
	.st2{fill:#2933C5;stroke:#2933C5;stroke-width:0.25;stroke-miterlimit:10;}
	.st3{fill:#2933BC;}
	.st4{fill:#1CB69A;}
	.st5{fill:#FFFFFF;}
	.st6{fill:#F64066;}
</style>
<g>
	<path class="st0" d="M156,40H40c-3.31,0-6,2.69-6,6v104c0,3.31,2.69,6,6,6h116c3.31,0,6-2.69,6-6V46C162,42.69,159.31,40,156,40z
		 M150,71.5H77.5V52H150V71.5z M65.5,52v19.5H46V52H65.5z M46,144V83.5h104V144H46z"/>
	<rect class="st1" width="196" height="196"/>
</g>
</svg>
